^D:\PROJECTS\VS C++\SQUAREFUNC\SQUAREFUNC\DEBUG\SQUAREFUNC.OBJ
D:\PROJECTS\VS C++\SQUAREFUNC\SQUAREFUNC\DEBUG\SQUAREFUNC.EXE
D:\PROJECTS\VS C++\SQUAREFUNC\SQUAREFUNC\DEBUG\SQUAREFUNC.ILK
D:\PROJECTS\VS C++\SQUAREFUNC\SQUAREFUNC\DEBUG\SQUAREFUNC.PDB
